307	I	11-1	Jueves	224
307	I	11-1	Lunes	225
307	J	2-4	Viernes	105
307	J	2-4	Miercoles	236
307	Q	6-8	Miercoles	234
307	Q	4-6	Viernes	105
328-1	A	11-1	Jueves	222
328-1	A	9-11	Miercoles	226
328-1	A	9-11	Viernes	227
SIS502	A	7-9	Miercoles	225
SIS502	A	2-4	Martes	227
SIS502	A	9-11	Jueves	224
SIS502	B	2-4	Miercoles	225
SIS502	B	11-1	Lunes	236
SIS502	B	2-4	Viernes	225
SIS402	A	6-8	Lunes	222
SIS402	A	4-6	Viernes	229
SIS504	A	11-1	Martes	222
SIS504	A	11-1	Miercoles	234
SIS504	B	6-8	Viernes	222
SIS504	B	7-9	Lunes	227
11465	A	11-1	Miercoles	230
11465	A	2-4	Jueves	227
11465	B	6-8	Viernes	234
11465	B	6-8	Martes	226
11465	C	4-6	Martes	236
11465	C	7-9	Miercoles	226
311-1	A	7-9	Miercoles	105
311-1	A	7-9	Martes	236
311-1	I	6-8	Lunes	230
311-1	I	9-11	Viernes	229
311-1	J	9-11	Jueves	236
311-1	J	9-11	Martes	234
316-1	A	4-6	Viernes	236
316-1	A	11-1	Martes	229
316-1	D	6-8	Martes	225
316-1	D	9-11	Lunes	234
SIS803	A	9-11	Jueves	227
SIS803	A	4-6	Martes	231
322-1	E	6-8	Martes	230
322-1	E	11-1	Jueves	221
317-1	FC	6-8	Viernes	224
317-1	FC	7-9	Miercoles	236
317-1	FD	9-11	Miercoles	222
317-1	FD	2-4	Martes	229
MAT131	A	2-4	Martes	236
MAT131	A	9-11	Miercoles	231
SIS401	A	2-4	Viernes	236
SIS401	A	7-9	Jueves	231
SIS601	A	4-6	Viernes	227
SIS601	A	7-9	Miercoles	230
SIS301	A	4-6	Jueves	236
SIS301	A	6-8	Miercoles	221
SIS301	B	11-1	Jueves	227
SIS301	B	7-9	Viernes	225
EFISH 409	A	2-4	Viernes	224
EFISH 409	A	11-1	Jueves	225
EFISH 409	B	9-11	Miercoles	105
EFISH 409	B	4-6	Lunes	231
PIS110	A	11-1	Lunes	227
PIS110	A	2-4	Jueves	229
SIS901	A	4-6	Viernes	231
SIS901	A	4-6	Martes	234
344	A	2-4	Miercoles	227
344	A	11-1	Viernes	221
SIS503	A	4-6	Viernes	225
SIS503	A	2-4	Jueves	236
SIS503	B	2-4	Lunes	230
SIS503	B	6-8	Miercoles	222
SIS602	A	6-8	Jueves	221
SIS602	A	6-8	Viernes	225
SIS703	A	6-8	Jueves	105
SIS703	A	11-1	Miercoles	221
31401	1A	11-1	Viernes	236
31401	1A	7-9	Jueves	105
31401	1B	4-6	Jueves	234
31401	1B	9-11	Viernes	225
M31402	2A	2-4	Lunes	224
M31402	2A	6-8	Martes	229
333-1	A	11-1	Viernes	226
333-1	A	6-8	Lunes	234
333-1	A	7-9	Miercoles	222
333-1	B	2-4	Miercoles	229
333-1	B	9-11	Viernes	234
333-1	B	4-6	Lunes	234
11477	A	6-8	Lunes	224
11477	A	6-8	Jueves	230
11477	B	4-6	Miercoles	105
11477	B	2-4	Martes	231
11477	C	9-11	Lunes	236
11477	C	6-8	Miercoles	105
11477	D	2-4	Martes	105
11477	D	9-11	Jueves	105
11479	A	2-4	Lunes	229
11479	A	7-9	Martes	225
11479	B	11-1	Martes	224
11479	B	7-9	Lunes	229
338	A	11-1	Miercoles	224
338	A	7-9	Viernes	221
SIS402L	A	9-11	Miercoles	Sala 2
SIS402L	B	6-8	Miercoles	Sala 332
SIS504L	A	4-6	Miercoles	Sala 2
SIS504L	B	9-11	Lunes	Sala 4
SIS504L	C	6-8	Jueves	Sala 332
329-1	C	2-4	Miercoles	Sala 2
329-1	D	9-11	Jueves	Sala 2
SIS601L	A	9-11	Jueves	Sala 333
SIS601L	B	9-11	Viernes	Sala 4
10153	A	2-4	Viernes	Sala 4
10153	B	7-9	Martes	Sala 332
SIS401L	A	11-1	Lunes	Sala 2
SIS401L	B	11-1	Viernes	Sala 4
SIS503L	A	7-9	Jueves	Sala 332
SIS503L	B	6-8	Martes	Sala 333
SIS602L	A	11-1	Martes	Sala 332
SIS602L	B	6-8	Miercoles	Sala 2
SIS703L	A	6-8	Martes	245
SIS703L	B	6-8	Miercoles	245
11478	A	9-11	Martes	Sala 2
11478	B	4-6	Viernes	Sala 2
11478	C	4-6	Lunes	Sala 332
11478	D	11-1	Lunes	Sala 4
318-1	C	6-8	Jueves	Sala 4
318-1	D	9-11	Lunes	Sala 332
318-1	E	4-6	Miercoles	Sala 333
318-1	L	2-4	Jueves	Sala 333
SIS201-L	A	7-9	Lunes	Sala 2
SIS201-L	B	7-9	Jueves	Sala 333
SIS201-L	C	4-6	Martes	Sala 333
SIS702L	A	2-4	Martes	245
SIS702L	B	2-4	Lunes	245
SIS603L	A	4-6	Martes	Sala 332
SIS603L	B	2-4	Lunes	Sala 332
21505	M	7-9	Viernes	105
21505	M	9-11	Lunes	225
21505	N	11-1	Viernes	224
21505	N	2-4	Miercoles	221
351	A	4-6	Jueves	222
351	A	11-1	Martes	225
312-1	J	2-4	Martes	221
312-1	J	4-6	Jueves	105
312-1	K	11-1	Viernes	229
312-1	K	11-1	Miercoles	105
SIS801	A	4-6	Viernes	224
SIS801	A	11-1	Lunes	234
SIS801	A	9-11	Martes	105
SIS201	A	4-6	Lunes	226
SIS201	A	7-9	Viernes	222
SIS201	B	9-11	Miercoles	221
SIS201	B	6-8	Viernes	227
346-1	B	2-4	Jueves	224
346-1	B	6-8	Lunes	229
346-1	B	9-11	Miercoles	224
SIS902	A	7-9	Lunes	234
SIS902	A	6-8	Viernes	105
SIS902	A	4-6	Miercoles	226
TLM815	A	11-1	Martes	105
TLM815	A	7-9	Lunes	225
TLM815	A	4-6	Jueves	221
TLM815	B	6-8	Jueves	231
TLM815	B	4-6	Miercoles	227
TLM815	B	9-11	Lunes	222
SIS702	A	7-9	Viernes	227
SIS702	A	9-11	Jueves	231
SIS702	A	7-9	Martes	105
SIS702	B	9-11	Lunes	230
SIS702	B	11-1	Jueves	105
SIS702	B	6-8	Viernes	236
SIS603	A	6-8	Martes	221
SIS603	A	11-1	Lunes	229
SIS501	A	7-9	Martes	226
SIS501	A	7-9	Viernes	231
SIS706	A	9-11	Miercoles	236
SIS706	A	7-9	Jueves	225
SIS706	A	11-1	Martes	234
SIS706	B	4-6	Jueves	231
SIS706	B	4-6	Martes	105
SIS706	B	7-9	Lunes	105
323-1	D	6-8	Jueves	227
323-1	D	2-4	Lunes	222
fitness: ([4, 0, 0, 0], 4)